{
"total":406,
"message":"ok",
"pageCount":102,
"dataset":"baf_org_user",
"status":0,
"pageSize":4,
"currentPage":0,
"results":[{
	"loginname":"nj-zhangzhengping",
	"mobilephone":"",
	"username":"zhangzhengping",
	"remark":"",
	"userid":"55235009"
	},{
	"loginname":"nj-lujie",
	"mobilephone":"15851808750",
	"username":"lujie",
	"remark":"",
	"userid":"55235021"
	},{
	"loginname":"nj-tanyongfei",
	"mobilephone":"13700000000",
	"username":"tanyongfei",
	"remark":"",
	"userid":"55316606"
	},{
	"loginname":"nj-qiuyuanlai",
	"mobilephone":"13451804977",
	"username":"qiuyuanlai",
	"remark":"",
	"userid":"55235225"
	}]
}